-a="D:\Unity Projects\Git Project\Centipede\Library\PlayerScriptAssemblies\Assembly-CSharp.dll"
-a="D:\Unity Projects\Git Project\Centipede\Library\PlayerScriptAssemblies\Unity.2D.Tilemap.Extras.dll"
-a="D:\Unity Projects\Git Project\Centipede\Library\PlayerScriptAssemblies\Unity.InternalAPIEngineBridge.001.dll"
-a="D:\Unity Projects\Git Project\Centipede\Library\PlayerScriptAssemblies\Scripts.dll"
-a="D:\Unity Projects\Git Project\Centipede\Library\PlayerScriptAssemblies\Unity.2D.PixelPerfect.dll"
-a="D:\Unity Projects\Git Project\Centipede\Library\PlayerScriptAssemblies\UnityEngine.TestRunner.dll"
-a="D:\Unity Projects\Git Project\Centipede\Library\PlayerScriptAssemblies\Unity.Timeline.dll"
-a="D:\Unity Projects\Git Project\Centipede\Library\PlayerScriptAssemblies\Unity.TextMeshPro.dll"
-a="D:\Unity Projects\Git Project\Centipede\Library\PlayerScriptAssemblies\Unity.VisualScripting.Flow.dll"
-a="D:\Unity Projects\Git Project\Centipede\Library\PlayerScriptAssemblies\UnityEngine.UI.dll"
-a="D:\Unity Projects\Git Project\Centipede\Library\PlayerScriptAssemblies\Unity.VisualScripting.Core.dll"
-a="D:\Unity Projects\Git Project\Centipede\Library\PlayerScriptAssemblies\Unity.Mathematics.dll"
-a="D:\Unity Projects\Git Project\Centipede\Library\PlayerScriptAssemblies\Unity.2D.IK.Runtime.dll"
-a="D:\Unity Projects\Git Project\Centipede\Library\PlayerScriptAssemblies\Unity.Burst.dll"
-a="D:\Unity Projects\Git Project\Centipede\Library\PlayerScriptAssemblies\Unity.2D.Animation.Runtime.dll"
-a="D:\Unity Projects\Git Project\Centipede\Library\PlayerScriptAssemblies\Unity.2D.Common.Runtime.dll"
-a="D:\Unity Projects\Git Project\Centipede\Library\PlayerScriptAssemblies\Unity.2D.SpriteShape.Runtime.dll"
-a="D:\Unity Projects\Git Project\Centipede\Library\PlayerScriptAssemblies\Unity.VisualScripting.State.dll"
-a="D:\Unity Projects\Git Project\Centipede\Library\PackageCache\com.unity.nuget.newtonsoft-json@2.0.0\Runtime\AOT\Newtonsoft.Json.dll"
-a="D:\Unity Projects\Git Project\Centipede\Library\PackageCache\com.unity.nuget.newtonsoft-json@2.0.0\Runtime\Portable\Newtonsoft.Json.dll"
-a="D:\Unity Projects\Git Project\Centipede\Library\PackageCache\com.unity.burst@1.6.0\Unity.Burst.CodeGen\Unity.Burst.Cecil.Pdb.dll"
-a="D:\Unity Projects\Git Project\Centipede\Assets\Firebase\Plugins\Firebase.Storage.dll"
-a="D:\Unity Projects\Git Project\Centipede\Assets\Parse\Plugins\Unity.Compat.dll"
-a="D:\Unity Projects\Git Project\Centipede\Assets\Firebase\Plugins\Firebase.App.dll"
-a="D:\Unity Projects\Git Project\Centipede\Library\PackageCache\com.unity.nuget.newtonsoft-json@2.0.0\Runtime\Newtonsoft.Json.dll"
-a="D:\Unity Projects\Git Project\Centipede\Assets\Parse\Plugins\Unity.Tasks.dll"
-a="D:\Unity Projects\Git Project\Centipede\Library\PackageCache\com.unity.ext.nunit@1.0.6\net35\unity-custom\nunit.framework.dll"
-a="D:\Unity Projects\Git Project\Centipede\Assets\Firebase\Plugins\iOS\Firebase.App.dll"
-a="D:\Unity Projects\Git Project\Centipede\Assets\Firebase\Plugins\iOS\Firebase.Database.dll"
-a="D:\Unity Projects\Git Project\Centipede\Assets\Firebase\Plugins\Firebase.Database.dll"
-a="D:\Unity Projects\Git Project\Centipede\Library\PackageCache\com.unity.burst@1.6.0\Unity.Burst.Unsafe.dll"
-a="D:\Unity Projects\Git Project\Centipede\Library\PackageCache\com.unity.burst@1.6.0\Unity.Burst.CodeGen\Unity.Burst.Cecil.Mdb.dll"
-a="D:\Unity Projects\Git Project\Centipede\Assets\Parse\Plugins\dotNet45\Unity.Tasks.dll"
-a="D:\Unity Projects\Git Project\Centipede\Assets\Firebase\Plugins\Firebase.TaskExtension.dll"
-a="D:\Unity Projects\Git Project\Centipede\Library\PackageCache\com.unity.burst@1.6.0\Unity.Burst.CodeGen\Unity.Burst.Cecil.dll"
-a="D:\Unity Projects\Git Project\Centipede\Library\PackageCache\com.unity.burst@1.6.0\Unity.Burst.CodeGen\Unity.Burst.Cecil.Rocks.dll"
-a="D:\Unity Projects\Git Project\Centipede\Assets\Firebase\Plugins\Google.MiniJson.dll"
-a="D:\Unity Projects\Git Project\Centipede\Assets\Firebase\Plugins\iOS\Firebase.Auth.dll"
-a="D:\Unity Projects\Git Project\Centipede\Library\PackageCache\com.unity.visualscripting@1.7.6\Runtime\VisualScripting.Flow\Dependencies\NCalc\Unity.VisualScripting.Antlr3.Runtime.dll"
-a="D:\Unity Projects\Git Project\Centipede\Assets\Firebase\Plugins\Firebase.Platform.dll"
-a="D:\Unity Projects\Git Project\Centipede\Assets\Parse\Plugins\dotNet45\Unity.Compat.dll"
-a="D:\Unity Projects\Git Project\Centipede\Assets\Firebase\Plugins\iOS\Firebase.Storage.dll"
-a="D:\Unity Projects\Git Project\Centipede\Assets\Firebase\Plugins\Firebase.Auth.dll"
-s="D:\Unity Editors\2021.2.1f1\Editor\Data\Managed\UnityEngine"
-s="D:\Unity Projects\Git Project\Centipede\Library\PlayerScriptAssemblies"
-s="D:\Unity Projects\Git Project\Centipede\Library\PackageCache\com.unity.nuget.newtonsoft-json@2.0.0\Runtime\AOT"
-s="D:\Unity Projects\Git Project\Centipede\Library\PackageCache\com.unity.nuget.newtonsoft-json@2.0.0\Runtime\Portable"
-s="D:\Unity Projects\Git Project\Centipede\Library\PackageCache\com.unity.burst@1.6.0\Unity.Burst.CodeGen"
-s="D:\Unity Projects\Git Project\Centipede\Assets\Firebase\Plugins"
-s="D:\Unity Projects\Git Project\Centipede\Assets\Parse\Plugins"
-s="D:\Unity Projects\Git Project\Centipede\Library\PackageCache\com.unity.nuget.newtonsoft-json@2.0.0\Runtime"
-s="D:\Unity Projects\Git Project\Centipede\Library\PackageCache\com.unity.ext.nunit@1.0.6\net35\unity-custom"
-s="D:\Unity Projects\Git Project\Centipede\Assets\Firebase\Plugins\iOS"
-s="D:\Unity Projects\Git Project\Centipede\Library\PackageCache\com.unity.burst@1.6.0"
-s="D:\Unity Projects\Git Project\Centipede\Assets\Parse\Plugins\dotNet45"
-s="D:\Unity Projects\Git Project\Centipede\Library\PackageCache\com.unity.visualscripting@1.7.6\Runtime\VisualScripting.Flow\Dependencies\NCalc"
-s="D:\Unity Editors\2021.2.1f1\Editor\Data\Managed\UnityEngine"
-s="D:\Unity Editors\2021.2.1f1\Editor\Data\NetStandard\ref\2.1.0"
-s="D:\Unity Editors\2021.2.1f1\Editor\Data\NetStandard\compat\2.1.0\shims\netstandard"
-s="D:\Unity Editors\2021.2.1f1\Editor\Data\NetStandard\Extensions\2.0.0"
-s="D:\Unity Editors\2021.2.1f1\Editor\Data\NetStandard\compat\2.1.0\shims\netfx"
-o="D:\Unity Projects\Git Project\Centipede\Library\BuildPlayerData\Player"
-rn="RuntimeInitializeOnLoads.json"
-tn="TypeDb-All.json"
