Library\Bee\artifacts\mvdfrm\UnityEditor.UI.ref.dll_4C98D3F7040CD4F5.mvfrm
Library\Bee\artifacts\mvdfrm\UnityEngine.UI.ref.dll_08FEAA520A2EFD60.mvfrm
Library\Bee\artifacts\mvdfrm\Unity.Compat.dll_BF1C3A400F471BD4.mvfrm
Library\Bee\artifacts\mvdfrm\Unity.Tasks.dll_E59340E2C7414818.mvfrm
Library\Bee\artifacts\mvdfrm\UnityEditor.Graphs.dll_AB7BA6CE81ACF70D.mvfrm
Library\Bee\artifacts\mvdfrm\UnityEditor.CoreModule.dll_0FC7ADDDC45007DB.mvfrm
Library\Bee\artifacts\mvdfrm\UnityEditor.DeviceSimulatorModule.dll_0282F3A41DFDA9D6.mvfrm
Library\Bee\artifacts\mvdfrm\UnityEditor.DiagnosticsModule.dll_A2758DB96A8676A4.mvfrm
Library\Bee\artifacts\mvdfrm\UnityEditor.dll_8243A7366768FACA.mvfrm
Library\Bee\artifacts\mvdfrm\UnityEditor.GraphViewModule.dll_7D5A8E4B54BF2DFB.mvfrm
Library\Bee\artifacts\mvdfrm\UnityEditor.PackageManagerUIModule.dll_4795E8FDC4AD2177.mvfrm
Library\Bee\artifacts\mvdfrm\UnityEditor.QuickSearchModule.dll_2D850EC6C35D72FD.mvfrm
Library\Bee\artifacts\mvdfrm\UnityEditor.SceneTemplateModule.dll_033C8265659EA31E.mvfrm
Library\Bee\artifacts\mvdfrm\UnityEditor.TextCoreFontEngineModule.dll_FCC4718B1770A6F9.mvfrm
Library\Bee\artifacts\mvdfrm\UnityEditor.TextCoreTextEngineModule.dll_44ACA7FCA6F46017.mvfrm
Library\Bee\artifacts\mvdfrm\UnityEditor.UIBuilderModule.dll_D1E33B67C777A72F.mvfrm
Library\Bee\artifacts\mvdfrm\UnityEditor.UIElementsModule.dll_AD34B50362B9A737.mvfrm
Library\Bee\artifacts\mvdfrm\UnityEditor.UIElementsSamplesModule.dll_6773599B3574FAA6.mvfrm
Library\Bee\artifacts\mvdfrm\UnityEditor.UIServiceModule.dll_0AD54CCAB0AEF749.mvfrm
Library\Bee\artifacts\mvdfrm\UnityEditor.UnityConnectModule.dll_80546B0E0835A411.mvfrm
Library\Bee\artifacts\mvdfrm\UnityEngine.AccessibilityModule.dll_35E1EDFC6614CABB.mvfrm
Library\Bee\artifacts\mvdfrm\UnityEngine.AIModule.dll_29F5281EE9BCE8CF.mvfrm
Library\Bee\artifacts\mvdfrm\UnityEngine.AndroidJNIModule.dll_2B7D9DD6ABD9160D.mvfrm
Library\Bee\artifacts\mvdfrm\UnityEngine.AnimationModule.dll_4BE00A742F1C02A1.mvfrm
Library\Bee\artifacts\mvdfrm\UnityEngine.ARModule.dll_E367ED2246DA4798.mvfrm
Library\Bee\artifacts\mvdfrm\UnityEngine.AssetBundleModule.dll_716E41B825C427EF.mvfrm
Library\Bee\artifacts\mvdfrm\UnityEngine.AudioModule.dll_55DDDE0277E65353.mvfrm
Library\Bee\artifacts\mvdfrm\UnityEngine.ClothModule.dll_BCC63AFD52033237.mvfrm
Library\Bee\artifacts\mvdfrm\UnityEngine.ClusterInputModule.dll_FFF0E023B9BD76D7.mvfrm
Library\Bee\artifacts\mvdfrm\UnityEngine.ClusterRendererModule.dll_082FB6158DB8B75A.mvfrm
Library\Bee\artifacts\mvdfrm\UnityEngine.CoreModule.dll_32E881306C557306.mvfrm
Library\Bee\artifacts\mvdfrm\UnityEngine.CrashReportingModule.dll_06BB8EB1A727265E.mvfrm
Library\Bee\artifacts\mvdfrm\UnityEngine.DirectorModule.dll_C311139E25CD52A3.mvfrm
Library\Bee\artifacts\mvdfrm\UnityEngine.dll_B4E7EE0EC5DC87AF.mvfrm
Library\Bee\artifacts\mvdfrm\UnityEngine.DSPGraphModule.dll_C8627507982E23C4.mvfrm
Library\Bee\artifacts\mvdfrm\UnityEngine.GameCenterModule.dll_55CAE7F1721A06FE.mvfrm
Library\Bee\artifacts\mvdfrm\UnityEngine.GIModule.dll_C231712C856BD0E9.mvfrm
Library\Bee\artifacts\mvdfrm\UnityEngine.GridModule.dll_10599D1E84AA08FD.mvfrm
Library\Bee\artifacts\mvdfrm\UnityEngine.HotReloadModule.dll_CD28C87A0A4F1E23.mvfrm
Library\Bee\artifacts\mvdfrm\UnityEngine.ImageConversionModule.dll_7421B3C60FDD6F4E.mvfrm
Library\Bee\artifacts\mvdfrm\UnityEngine.IMGUIModule.dll_8E3D7D693E17E734.mvfrm
Library\Bee\artifacts\mvdfrm\UnityEngine.InputLegacyModule.dll_02B35CD6BDB5DDE0.mvfrm
Library\Bee\artifacts\mvdfrm\UnityEngine.InputModule.dll_BC53A5B2EE1E77F7.mvfrm
Library\Bee\artifacts\mvdfrm\UnityEngine.JSONSerializeModule.dll_95F9773865502B45.mvfrm
Library\Bee\artifacts\mvdfrm\UnityEngine.LocalizationModule.dll_3E3DAA76513969D0.mvfrm
Library\Bee\artifacts\mvdfrm\UnityEngine.ParticleSystemModule.dll_59CDD7FE1538B1EC.mvfrm
Library\Bee\artifacts\mvdfrm\UnityEngine.PerformanceReportingModule.dll_B3DAF2E097358DC5.mvfrm
Library\Bee\artifacts\mvdfrm\UnityEngine.Physics2DModule.dll_9885FA64D018FA36.mvfrm
Library\Bee\artifacts\mvdfrm\UnityEngine.PhysicsModule.dll_0E1BA9249B68F684.mvfrm
Library\Bee\artifacts\mvdfrm\UnityEngine.ProfilerModule.dll_F5574CD4BF26D9B0.mvfrm
Library\Bee\artifacts\mvdfrm\UnityEngine.RuntimeInitializeOnLoadManagerInitializerModule.dll_F885B88CA29BD6FF.mvfrm
Library\Bee\artifacts\mvdfrm\UnityEngine.ScreenCaptureModule.dll_AFE124BD79BC57A7.mvfrm
Library\Bee\artifacts\mvdfrm\UnityEngine.SharedInternalsModule.dll_F832F29B870B6A9E.mvfrm
Library\Bee\artifacts\mvdfrm\UnityEngine.SpriteMaskModule.dll_3EF75A8193899C78.mvfrm
Library\Bee\artifacts\mvdfrm\UnityEngine.SpriteShapeModule.dll_8ACF6F12DB665FF9.mvfrm
Library\Bee\artifacts\mvdfrm\UnityEngine.StreamingModule.dll_0074F7C47EA3B9DF.mvfrm
Library\Bee\artifacts\mvdfrm\UnityEngine.SubstanceModule.dll_DD200C0DC9F6B7ED.mvfrm
Library\Bee\artifacts\mvdfrm\UnityEngine.SubsystemsModule.dll_A9A4C0E361D1848B.mvfrm
Library\Bee\artifacts\mvdfrm\UnityEngine.TerrainModule.dll_2862249371273F72.mvfrm
Library\Bee\artifacts\mvdfrm\UnityEngine.TerrainPhysicsModule.dll_5A4880D12E7BAC79.mvfrm
Library\Bee\artifacts\mvdfrm\UnityEngine.TextCoreFontEngineModule.dll_7B23ECDE2A6E65C4.mvfrm
Library\Bee\artifacts\mvdfrm\UnityEngine.TextCoreTextEngineModule.dll_C30C234FB9F21EE2.mvfrm
Library\Bee\artifacts\mvdfrm\UnityEngine.TextRenderingModule.dll_D92096C830F3D79C.mvfrm
Library\Bee\artifacts\mvdfrm\UnityEngine.TilemapModule.dll_C75E8C1488E4207B.mvfrm
Library\Bee\artifacts\mvdfrm\UnityEngine.TLSModule.dll_BA0F785E5F8C0658.mvfrm
Library\Bee\artifacts\mvdfrm\UnityEngine.UIElementsModule.dll_ADE3224B64FDC082.mvfrm
Library\Bee\artifacts\mvdfrm\UnityEngine.UIElementsNativeModule.dll_920F9D9336259199.mvfrm
Library\Bee\artifacts\mvdfrm\UnityEngine.UIModule.dll_2568C64C4603EE7B.mvfrm
Library\Bee\artifacts\mvdfrm\UnityEngine.UmbraModule.dll_D0B28A1B050CFEC6.mvfrm
Library\Bee\artifacts\mvdfrm\UnityEngine.UNETModule.dll_C58EC919B964687F.mvfrm
Library\Bee\artifacts\mvdfrm\UnityEngine.UnityAnalyticsModule.dll_796D48C7C16003E8.mvfrm
Library\Bee\artifacts\mvdfrm\UnityEngine.UnityConnectModule.dll_6DB3EF1D02BDA4BC.mvfrm
Library\Bee\artifacts\mvdfrm\UnityEngine.UnityCurlModule.dll_7EFCABA59F2FF48E.mvfrm
Library\Bee\artifacts\mvdfrm\UnityEngine.UnityTestProtocolModule.dll_23360F8D8F704FFC.mvfrm
Library\Bee\artifacts\mvdfrm\UnityEngine.UnityWebRequestAssetBundleModule.dll_6255EDBE3DDED4B9.mvfrm
Library\Bee\artifacts\mvdfrm\UnityEngine.UnityWebRequestAudioModule.dll_2BD746BF1DA0585D.mvfrm
Library\Bee\artifacts\mvdfrm\UnityEngine.UnityWebRequestModule.dll_85C0BB701AD209CD.mvfrm
Library\Bee\artifacts\mvdfrm\UnityEngine.UnityWebRequestTextureModule.dll_5AA5D095D81F4BD2.mvfrm
Library\Bee\artifacts\mvdfrm\UnityEngine.UnityWebRequestWWWModule.dll_8DCE68ABA9B1DB4E.mvfrm
Library\Bee\artifacts\mvdfrm\UnityEngine.VehiclesModule.dll_3AD40D1D9FF7223E.mvfrm
Library\Bee\artifacts\mvdfrm\UnityEngine.VFXModule.dll_3AEE10CD35F96FC5.mvfrm
Library\Bee\artifacts\mvdfrm\UnityEngine.VideoModule.dll_7AE7626D3A786EF8.mvfrm
Library\Bee\artifacts\mvdfrm\UnityEngine.VirtualTexturingModule.dll_B69C52020ED41224.mvfrm
Library\Bee\artifacts\mvdfrm\UnityEngine.VRModule.dll_783AECD1E7BE73F3.mvfrm
Library\Bee\artifacts\mvdfrm\UnityEngine.WindModule.dll_A9375C58FD8BF16F.mvfrm
Library\Bee\artifacts\mvdfrm\UnityEngine.XRModule.dll_AAF9AFD670F8C151.mvfrm
Library\Bee\artifacts\mvdfrm\Unity.Android.Gradle.dll_15B1A8E611213F43.mvfrm
Library\Bee\artifacts\mvdfrm\Unity.Android.Types.dll_9C291A3415998BA9.mvfrm
Library\Bee\artifacts\mvdfrm\UnityEditor.Android.Extensions.dll_8519C325D3CB9363.mvfrm
Library\Bee\artifacts\mvdfrm\UnityEditor.iOS.Extensions.Common.dll_586CBCD160EF1DC0.mvfrm
Library\Bee\artifacts\mvdfrm\UnityEditor.iOS.Extensions.dll_F43A8FE4BE1710E5.mvfrm
Library\Bee\artifacts\mvdfrm\UnityEditor.iOS.Extensions.Xcode.dll_F5CB92C89066598C.mvfrm
Library\Bee\artifacts\mvdfrm\UnityEditor.UWP.Extensions.dll_FAA9C1F07AFBD200.mvfrm
Library\Bee\artifacts\mvdfrm\UnityEditor.WebGL.Extensions.dll_12002E06D51F7805.mvfrm
Library\Bee\artifacts\mvdfrm\UnityEditor.WindowsStandalone.Extensions.dll_8EF6489FBF586A75.mvfrm
Library\Bee\artifacts\mvdfrm\Unity.Burst.Cecil.dll_21894457B8FAFDC4.mvfrm
Library\Bee\artifacts\mvdfrm\Unity.Burst.Cecil.Mdb.dll_FD98609DAE119201.mvfrm
Library\Bee\artifacts\mvdfrm\Unity.Burst.Cecil.Pdb.dll_14EAD90D2CC69384.mvfrm
Library\Bee\artifacts\mvdfrm\Unity.Burst.Cecil.Rocks.dll_681CFA8426B06C24.mvfrm
Library\Bee\artifacts\mvdfrm\Unity.Burst.Unsafe.dll_9E1E3388DBD01B8F.mvfrm
Library\Bee\artifacts\mvdfrm\Unity.Plastic.Antlr3.Runtime.dll_FF8873EF2C49F866.mvfrm
Library\Bee\artifacts\mvdfrm\Unity.Plastic.Newtonsoft.Json.dll_C806CD7F3DEB936F.mvfrm
Library\Bee\artifacts\mvdfrm\Unity.VisualScripting.IonicZip.dll_50273821D2E47148.mvfrm
Library\Bee\artifacts\mvdfrm\Unity.VisualScripting.YamlDotNet.dll_037047893D019DB4.mvfrm
Library\Bee\artifacts\mvdfrm\Unity.VisualScripting.Antlr3.Runtime.dll_B4DD6E6A6DCAADD3.mvfrm